R Workshop / QAU, Islamabad
…
Filter rows with filter()

Select a subset of rows in a data frame.

Easily filter for many conditions at once.

filter()

for crashes in Durham County

bike %>%
  filter(county == "Durham")

# A tibble: 340 × 65
    ...1 object_id city   county region development locality on_road rural_urban
   <dbl>     <dbl> <chr>  <chr>  <chr>  <chr>       <chr>    <chr>   <chr>      
 1    24      2452 Durham Durham Piedm… Residential Urban (… <NA>    Urban      
 2    28      2441 Durham Durham Piedm… Commercial  Urban (… <NA>    Urban      
 3    37      2466 Durham Durham Piedm… Commercial  Urban (… <NA>    Urban      
 4    63       549 Durham Durham Piedm… Residential Urban (… PARK A… Urban      
 5    87       598 Durham Durham Piedm… Residential Urban (… BELT S… Urban      
 6    90       603 Durham Durham Piedm… Residential Urban (… HINSON… Urban      
 7   144      3974 Durham Durham Piedm… Commercial  Urban (… <NA>    Urban      
 8   231      7134 Durham Durham Piedm… Commercial  Urban (… <NA>    Urban      
 9   336      1670 Durham Durham Piedm… Commercial  Urban (… INFINI… Urban      
10   351      1773 Durham Durham Piedm… Residential Urban (… <NA>    Urban      
# … with 330 more rows, and 56 more variables: speed_limit <chr>,
#   traffic_control <chr>, weather <chr>, workzone <chr>, bike_age <dbl>,
#   bike_age_group <chr>, bike_alcohol <chr>, bike_alcohol_drugs <chr>,
#   bike_direction <chr>, bike_injury <chr>, bike_position <chr>,
#   bike_race <chr>, bike_sex <chr>, driver_age <dbl>, driver_age_group <chr>,
#   driver_alcohol <chr>, driver_alcohol_drugs <chr>, driver_est_speed <chr>,
#   driver_injury <chr>, driver_race <chr>, driver_sex <chr>, …

filter()

for crashes in Durham County where biker was < 10 yrs old

bike %>%
  filter(county == "Durham", bike_age < 10)

# A tibble: 27 × 65
    ...1 object_id city   county region development locality on_road rural_urban
   <dbl>     <dbl> <chr>  <chr>  <chr>  <chr>       <chr>    <chr>   <chr>      
 1    24      2452 Durham Durham Piedm… Residential Urban (… <NA>    Urban      
 2    63       549 Durham Durham Piedm… Residential Urban (… PARK A… Urban      
 3   519      2279 Durham Durham Piedm… Residential Urban (… <NA>    Urban      
 4   827      2431 Durham Durham Piedm… Residential Urban (… <NA>    Urban      
 5  1072      4611 Durham Durham Piedm… Residential Urban (… <NA>    Urban      
 6  1147       950 Durham Durham Piedm… Residential Urban (… BERWYN… Urban      
 7  1767      6773 Durham Durham Piedm… Residential Urban (… <NA>    Urban      
 8  2429      4106 Durham Durham Piedm… Residential Urban (… <NA>    Urban      
 9  3337      6485 Durham Durham Piedm… Residential Mixed (… <NA>    Urban      
10  3349      6591 Durham Durham Piedm… Residential Urban (… <NA>    Urban      
# … with 17 more rows, and 56 more variables: speed_limit <chr>,
#   traffic_control <chr>, weather <chr>, workzone <chr>, bike_age <dbl>,
#   bike_age_group <chr>, bike_alcohol <chr>, bike_alcohol_drugs <chr>,
#   bike_direction <chr>, bike_injury <chr>, bike_position <chr>,
#   bike_race <chr>, bike_sex <chr>, driver_age <dbl>, driver_age_group <chr>,
#   driver_alcohol <chr>, driver_alcohol_drugs <chr>, driver_est_speed <chr>,
#   driver_injury <chr>, driver_race <chr>, driver_sex <chr>, …
…
                      hit_run
crash_location           No  Yes
  Intersection         2878  352
  Intersection-Related  369   72
  Non-Intersection     2876  587
  Non-Roadway           281   38
  Unknown Location        3    7

or select()to exclude variables

bike %>%
  select(-object_id)

# A tibble: 7,467 × 64
    ...1 city             county region development locality on_road rural_urban
   <dbl> <chr>            <chr>  <chr>  <chr>       <chr>    <chr>   <chr>      
 1     1 None - Rural Cr… Wayne  Coast… Farms, Woo… Rural (… SR 1915 Rural      
 2     2 Henderson        Vance  Piedm… Residential Mixed (… NICHOL… Urban      
 3     3 None - Rural Cr… Linco… Piedm… Farms, Woo… Rural (… US 321  Rural      
 4     4 Whiteville       Colum… Coast… Commercial  Urban (… W BURK… Urban      
 5     5 Wilmington       New H… Coast… Residential Urban (… RACINE… Urban      
 6     6 None - Rural Cr… Robes… Coast… Farms, Woo… Rural (… SR 1513 Rural      
 7     7 None - Rural Cr… Richm… Piedm… Residential Mixed (… SR 1903 Rural      
 8     8 Raleigh          Wake   Piedm… Commercial  Urban (… PERSON… Urban      
 9     9 Whiteville       Colum… Coast… Residential Rural (… FLOWER… Urban      
10    10 New Bern         Craven Coast… Residential Urban (… SUTTON… Urban      
# … with 7,457 more rows, and 56 more variables: speed_limit <chr>,
#   traffic_control <chr>, weather <chr>, workzone <chr>, bike_age <dbl>,
#   bike_age_group <chr>, bike_alcohol <chr>, bike_alcohol_drugs <chr>,
#   bike_direction <chr>, bike_injury <chr>, bike_position <chr>,
#   bike_race <chr>, bike_sex <chr>, driver_age <dbl>, driver_age_group <chr>,
#   driver_alcohol <chr>, driver_alcohol_drugs <chr>, driver_est_speed <chr>,
#   driver_injury <chr>, driver_race <chr>, driver_sex <chr>, …
…
