Untitled
…
department_two <-
  tibble(
    undergrad = runif(n = number_in_each, min = 0.6, max = 0.8),
    noise = rnorm(n = number_in_each, 0, sd = 0.1),
    grad = undergrad + noise + 0.3,
    type = "Department 2"
  )

both_departments <- rbind(department_one, department_two)

both_departments

# A tibble: 2,000 × 4
   undergrad   noise  grad type        
       <dbl>   <dbl> <dbl> <chr>       
 1     0.772 -0.0566 0.715 Department 1
 2     0.724 -0.0312 0.693 Department 1
 3     0.797  0.0770 0.874 Department 1
 4     0.763 -0.0664 0.697 Department 1
 5     0.707  0.0717 0.779 Department 1
 6     0.781 -0.0165 0.764 Department 1
 7     0.726 -0.104  0.623 Department 1
 8     0.749  0.0527 0.801 Department 1
 9     0.732 -0.0471 0.684 Department 1
10     0.738  0.0552 0.793 Department 1
# … with 1,990 more rows
…
general_public <-
  tibble(
    VO2 = runif(n = number_of_public, min = 0.6, max = 0.8),
    noise = rnorm(n = number_of_public, 0, sd = 0.03),
    chance_of_winning = VO2 + noise + 0.1,
    type = "Public"
  ) |>
  select(-noise)

professionals_and_public <- rbind(professionals, general_public)

professionals_and_public

# A tibble: 1,100 × 3
     VO2 chance_of_winning type         
   <dbl>             <dbl> <chr>        
 1 0.772             0.734 Professionals
 2 0.724             0.773 Professionals
 3 0.797             0.772 Professionals
 4 0.763             0.754 Professionals
 5 0.707             0.843 Professionals
 6 0.781             0.740 Professionals
 7 0.726             0.803 Professionals
 8 0.749             0.750 Professionals
 9 0.732             0.890 Professionals
10 0.738             0.821 Professionals
# … with 1,090 more rows
…
