Learn Basics of Data Analysis using R
…
    Afghanistan 
    11537966 
    34.020 

    Afghanistan 
    13079460 
    36.088 

    Afghanistan 
    14880372 
    38.438 

In case you want to select most of the variables and drop one or two, you may proceed as follows

# A tibble: 1,704 × 5
   country     continent  year lifeExp      pop
   <fct>       <fct>     <int>   <dbl>    <int>
 1 Afghanistan Asia       1952    28.8  8425333
 2 Afghanistan Asia       1957    30.3  9240934
 3 Afghanistan Asia       1962    32.0 10267083
 4 Afghanistan Asia       1967    34.0 11537966
 5 Afghanistan Asia       1972    36.1 13079460
 6 Afghanistan Asia       1977    38.4 14880372
 7 Afghanistan Asia       1982    39.9 12881816
 8 Afghanistan Asia       1987    40.8 13867957
 9 Afghanistan Asia       1992    41.7 16317921
10 Afghanistan Asia       1997    41.8 22227415
# … with 1,694 more rows
…
    Belgium 
    Europe 
    2007 
    79.441 
    10392226 
    33692.6051 

Compared to previous one, gapminder is showing data only for 142 rows. Pipes %>% play very nicely with dplyr and make our code very easy to understand. The tibble gapminder is being piped into the function filter(). The argument year == 2007 tells filter() that it should find all the rows such that the logical condition year == 2007 is TRUE.

Have we accidently deleted all other rows? Answer is no.

Nope: we haven’t made any changes to gapminder at all. If you don’t believe me try entering gapminder at the console. All that this command does is display a subset of gapminder. If we wanted to store the result of running this command, we’d need to assign it to a variable, for example if you are not sure, lets type

# A tibble: 142 × 6
   country     continent  year lifeExp       pop gdpPercap
   <fct>       <fct>     <int>   <dbl>     <int>     <dbl>
 1 Afghanistan Asia       2007    43.8  31889923      975.
 2 Albania     Europe     2007    76.4   3600523     5937.
 3 Algeria     Africa     2007    72.3  33333216     6223.
 4 Angola      Africa     2007    42.7  12420476     4797.
 5 Argentina   Americas   2007    75.3  40301927    12779.
 6 Australia   Oceania    2007    81.2  20434176    34435.
 7 Austria     Europe     2007    79.8   8199783    36126.
 8 Bahrain     Asia       2007    75.6    708573    29796.
 9 Bangladesh  Asia       2007    64.1 150448339     1391.
10 Belgium     Europe     2007    79.4  10392226    33693.
# … with 132 more rows
…
Now we are selecting multiple countries for year 2007.

# A tibble: 5 × 6
  country     continent  year lifeExp        pop gdpPercap
  <fct>       <fct>     <int>   <dbl>      <int>     <dbl>
1 Afghanistan Asia       2007    43.8   31889923      975.
2 Bangladesh  Asia       2007    64.1  150448339     1391.
3 India       Asia       2007    64.7 1110396331     2452.
4 Iran        Asia       2007    71.0   69453570    11606.
5 Pakistan    Asia       2007    65.5  169270617     2606.

Filtering data for South Asia countries

# A tibble: 72 × 6
   country     continent  year lifeExp      pop gdpPercap
   <fct>       <fct>     <int>   <dbl>    <int>     <dbl>
 1 Afghanistan Asia       1952    28.8  8425333      779.
 2 Afghanistan Asia       1957    30.3  9240934      821.
 3 Afghanistan Asia       1962    32.0 10267083      853.
 4 Afghanistan Asia       1967    34.0 11537966      836.
 5 Afghanistan Asia       1972    36.1 13079460      740.
 6 Afghanistan Asia       1977    38.4 14880372      786.
 7 Afghanistan Asia       1982    39.9 12881816      978.
 8 Afghanistan Asia       1987    40.8 13867957      852.
 9 Afghanistan Asia       1992    41.7 16317921      649.
10 Afghanistan Asia       1997    41.8 22227415      635.
# … with 62 more rows

Sort data with arrange

Sort data with arrange Suppose we wanted to sort gapminder data for South Asia by gdpPercap. To do this we can use the arrange command along with the pipe %>% as follows:

# A tibble: 72 × 6
   country     continent  year lifeExp       pop gdpPercap
   <fct>       <fct>     <int>   <dbl>     <int>     <dbl>
 1 Nepal       Asia       1952    36.2   9182536      546.
 2 India       Asia       1952    37.4 372000000      547.
 3 India       Asia       1957    40.2 409000000      590.
 4 Nepal       Asia       1957    37.7   9682338      598.
 5 Bangladesh  Asia       1972    45.3  70759295      630.
 6 Afghanistan Asia       1997    41.8  22227415      635.
 7 Afghanistan Asia       1992    41.7  16317921      649.
 8 Nepal       Asia       1962    39.4  10332057      652.
 9 India       Asia       1962    43.6 454000000      658.
10 Bangladesh  Asia       1977    46.9  80428306      660.
# … with 62 more rows

The logic is very similar to what we saw above for filter. Here, I use another important function arrange. The argument gdpPercap tells arrange() that we want to sort by GDP per capita. Note that by default arrange() sorts in ascending order. If we want to sort in descending order, we use the function desc().

# A tibble: 72 × 6
   country   continent  year lifeExp        pop gdpPercap
   <fct>     <fct>     <int>   <dbl>      <int>     <dbl>
 1 Sri Lanka Asia       2007    72.4   20378239     3970.
 2 Sri Lanka Asia       2002    70.8   19576783     3015.
 3 Sri Lanka Asia       1997    70.5   18698655     2664.
 4 Pakistan  Asia       2007    65.5  169270617     2606.
 5 India     Asia       2007    64.7 1110396331     2452.
 6 Sri Lanka Asia       1992    70.4   17587060     2154.
 7 Pakistan  Asia       2002    63.6  153403524     2093.
 8 Pakistan  Asia       1997    61.8  135564834     2049.
 9 Pakistan  Asia       1992    60.8  120065004     1972.
10 Sri Lanka Asia       1987    69.0   16495304     1877.
# … with 62 more rows
…
# A tibble: 6 × 6
  country     continent  year lifeExp        pop gdpPercap
  <fct>       <fct>     <int>   <dbl>      <int>     <dbl>
1 Afghanistan Asia       2007    43.8   31889923      975.
2 Nepal       Asia       2007    63.8   28901790     1091.
3 Bangladesh  Asia       2007    64.1  150448339     1391.
4 India       Asia       2007    64.7 1110396331     2452.
5 Pakistan    Asia       2007    65.5  169270617     2606.
6 Sri Lanka   Asia       2007    72.4   20378239     3970.

Change an existing variable or create a new one with mutate

It’s a little hard to read the column pop in gapminder since there are so many digits. Suppose that, instead of raw population, we wanted to display population in millions. This requires us to pop by 1000000, which we can do using the function mutate() from dplyr as follows:

# A tibble: 72 × 6
   country     continent  year lifeExp   pop gdpPercap
   <fct>       <fct>     <int>   <dbl> <dbl>     <dbl>
 1 Afghanistan Asia       1952    28.8  8.43      779.
 2 Afghanistan Asia       1957    30.3  9.24      821.
 3 Afghanistan Asia       1962    32.0 10.3       853.
 4 Afghanistan Asia       1967    34.0 11.5       836.
 5 Afghanistan Asia       1972    36.1 13.1       740.
 6 Afghanistan Asia       1977    38.4 14.9       786.
 7 Afghanistan Asia       1982    39.9 12.9       978.
 8 Afghanistan Asia       1987    40.8 13.9       852.
 9 Afghanistan Asia       1992    41.7 16.3       649.
10 Afghanistan Asia       1997    41.8 22.2       635.
# … with 62 more rows

If we want to calculate GDP, we need to multiply gdpPercap by pop.

But wait! Didn't we just change pop so it's expressed in millions? 

No: we never stored the results of our previous command, we simply displayed them. Just as I discussed above, unless you overwrite it, the original gapminder dataset will be unchanged. With this in mind, we can create the gdp variable as follows:

# A tibble: 72 × 7
   country     continent  year lifeExp      pop gdpPercap          gdp
   <fct>       <fct>     <int>   <dbl>    <int>     <dbl>        <dbl>
 1 Afghanistan Asia       1952    28.8  8425333      779.  6567086330.
 2 Afghanistan Asia       1957    30.3  9240934      821.  7585448670.
 3 Afghanistan Asia       1962    32.0 10267083      853.  8758855797.
 4 Afghanistan Asia       1967    34.0 11537966      836.  9648014150.
 5 Afghanistan Asia       1972    36.1 13079460      740.  9678553274.
 6 Afghanistan Asia       1977    38.4 14880372      786. 11697659231.
 7 Afghanistan Asia       1982    39.9 12881816      978. 12598563401.
 8 Afghanistan Asia       1987    40.8 13867957      852. 11820990309.
 9 Afghanistan Asia       1992    41.7 16317921      649. 10595901589.
10 Afghanistan Asia       1997    41.8 22227415      635. 14121995875.
# … with 62 more rows
…
Ordering

If one wants to have ordered data with respect to specific column(s), arrange() function is used in dplyr. To arrange data by life expectancy, we use arrange() function

# A tibble: 142 × 3
   country                   year lifeExp
   <fct>                    <int>   <dbl>
 1 Swaziland                 2007    39.6
 2 Mozambique                2007    42.1
 3 Zambia                    2007    42.4
 4 Sierra Leone              2007    42.6
 5 Lesotho                   2007    42.6
 6 Angola                    2007    42.7
 7 Zimbabwe                  2007    43.5
 8 Afghanistan               2007    43.8
 9 Central African Republic  2007    44.7
10 Liberia                   2007    45.7
# … with 132 more rows

If one wants order from top to bottom, then use arrange(desc()) command as follows:

# A tibble: 142 × 3
   country           year lifeExp
   <fct>            <int>   <dbl>
 1 Japan             2007    82.6
 2 Hong Kong, China  2007    82.2
 3 Iceland           2007    81.8
 4 Switzerland       2007    81.7
 5 Australia         2007    81.2
 6 Spain             2007    80.9
 7 Sweden            2007    80.9
 8 Israel            2007    80.7
 9 France            2007    80.7
10 Canada            2007    80.7
# … with 132 more rows
…
# A tibble: 5 × 2
  continent    tot_pop
  <fct>          <dbl>
1 Africa     929539692
2 Americas   898871184
3 Asia      3811953827
4 Europe     586098529
5 Oceania     24549947

Percentiles

In general it is assumed that higher the GDP , higher the lifeExp. To test this assumption, lets calculate percentiles of lifeExp. This will indicate how many countries have ranking lower than the current country.

# A tibble: 142 × 5
   country           year lifeExp gdpPercap percentile
   <fct>            <int>   <dbl>     <dbl>      <int>
 1 Norway            2007    80.2    49357.         88
 2 Kuwait            2007    77.6    47307.         68
 3 Singapore         2007    80.0    47143.         87
 4 United States     2007    78.2    42952.         71
 5 Ireland           2007    78.9    40676.         79
 6 Hong Kong, China  2007    82.2    39725.         99
 7 Switzerland       2007    81.7    37506.         97
 8 Netherlands       2007    79.8    36798.         85
 9 Canada            2007    80.7    36319.         91
10 Iceland           2007    81.8    36181.         98
# … with 132 more rows

One can notice that all countries are well above 60th percentile on lifeExpectancy when arranged by GDP per capita.

Before you conclude, lets see the bottom side

# A tibble: 142 × 5
   country                   year lifeExp gdpPercap percentile
   <fct>                    <int>   <dbl>     <dbl>      <int>
 1 Congo, Dem. Rep.          2007    46.5      278.          7
 2 Liberia                   2007    45.7      415.          5
 3 Burundi                   2007    49.6      430.         10
 4 Zimbabwe                  2007    43.5      470.          4
 5 Guinea-Bissau             2007    46.4      579.          6
 6 Niger                     2007    56.9      620.         18
 7 Eritrea                   2007    58.0      641.         19
 8 Ethiopia                  2007    52.9      691.         14
 9 Central African Republic  2007    44.7      706.          5
10 Gambia                    2007    59.4      753.         21
# … with 132 more rows
…
