Analysing used car sales data for Pakistan
…
**The dataset to be used is pakwheels data obtained from kaggle and you can download data from the link data download or from my github repository. We read data as follows

Code

#pakwheels_11Jul2020 <- read_csv("C:/Users/92300/Downloads/archive/pakwheels-11Jul2020.csv")
#pakwheels<-saveRDS(pakwheels_11Jul2020,file = "pakwheels.rds")

pakwheels <- readRDS("D:/RepTemplates/data_analytics/pakwheels.rds")

pakwheels
## # A tibble: 56,186 × 16
##    `Ad No` Name       Price Model…¹ Locat…² Mileage Regis…³ Engin…⁴ Engin…⁵
##      <dbl> <chr>      <chr>   <dbl> <chr>     <dbl> <chr>   <chr>   <chr>  
##  1 4096758 Toyota Vi… 2385…    2017 G- 8, …    9869 Un-Reg… Petrol  1000 cc
##  2 4168305 Toyota Co… 1110…    2019 Peshaw…   11111 Islama… Petrol  1300 cc
##  3 4168298 Suzuki Al… 1530…    2019 Akora …   17500 Un-Reg… Petrol  660 cc 
##  4 4168307 Suzuki Al… 1650…    2019 Abdull…    9600 Lahore  Petrol  660 cc 
##  5 4168306 Toyota Co… 1435…    2010 9th Av…  120000 Islama… Petrol  1300 cc
##  6 4168303 Honda Civ… 3850…    2017 Peshaw…   22000 Islama… Petrol  1500 cc
##  7 4168304 Suzuki Wa… 1440…    2017 Gulber…   31000 Lahore  Petrol  1000 cc
##  8 4168309 Mitsubish… 1425…    2012 Askari…  101000 Lahore  Petrol  1000 cc
##  9 4168310 Toyota Pr… 2650…    1998 Sargod…  110000 Rawalp… Diesel  3000 cc
## 10 4168311 Honda Civ… 3350…    2017 Air Av…   60000 Lahore  Petrol  1800 cc
## # … with 56,176 more rows, 7 more variables: Transmission <chr>,
## #   Color <chr>, Assembly <chr>, `Body Type` <chr>, Features <chr>,
## #   `Last Updated` <chr>, URL <chr>, and abbreviated variable names
## #   ¹​`Model Year`, ²​Location, ³​`Registered City`, ⁴​`Engine Type`,
## #   ⁵​`Engine Capacity`
…
Grouping

Information in pakwheels data

To rename a variable, there are various ways. I am using a command rename(new_va=old_var).

Code

pakwheels<-pakwheels|>rename(year=`Model Year`)
#kbl()#|>
 # kable_styling(bootstrap_options = "striped", full_width = F)
#View(pakwheels)
pakwheels|>count(year)|>arrange(desc(year))# How many cars by year model are listed for sale
# A tibble: 30 × 2
    year     n
   <dbl> <int>
 1  2019  3166
 2  2018  3820
 3  2017  4628
 4  2016  4484
 5  2015  4900
 6  2014  4430
 7  2013  3342
 8  2012  3146
 9  2011  2621
10  2010  2117
# … with 20 more rows
…
mutate() to create new variables

summarize() to create summary statistics

group_by() for performing operations by group

Now I shall mention some of the powerful but very simple to use features of dplyr. ## Column Selection

More often than not, you don’t need all columns of a data set for your analysis. For example PDHS files have more than 5000 columns in some files and maybe 40 or 50 or even fewer than that are needed for your analysis. Select() function of R’s dplyr is used to select columns of your interest Three selected columns are selected as follows. You can give new name to this data.

Code

pkw %>% select(price, hp, company)
## # A tibble: 44,917 × 3
##      price    hp company   
##      <dbl> <dbl> <chr>     
##  1 2385000  1000 Toyota    
##  2  111000  1300 Toyota    
##  3 1530000   660 Suzuki    
##  4 1650000   660 Suzuki    
##  5 1435000  1300 Toyota    
##  6 3850000  1500 Honda     
##  7 1440000  1000 Suzuki    
##  8 1425000  1000 Mitsubishi
##  9 2650000  3000 Toyota    
## 10 3350000  1800 Honda     
## # … with 44,907 more rows

In case you want to select most of the variables and drop one or two, you may proceed as follows

Code

pkw |> select(-URL)
## # A tibble: 44,917 × 18
##    `Ad No` Name         Price  year Locat…¹ Mileage Regis…² Engin…³ Engin…⁴
##      <dbl> <chr>        <chr> <dbl> <chr>     <dbl> <chr>   <chr>   <chr>  
##  1 4096758 Toyota Vitz… 2385…  2017 G- 8, …    9869 Un-Reg… Petrol  1000 cc
##  2 4168305 Toyota Coro… 1110…  2019 Peshaw…   11111 Islama… Petrol  1300 cc
##  3 4168298 Suzuki Alto… 1530…  2019 Akora …   17500 Un-Reg… Petrol  660 cc 
##  4 4168307 Suzuki Alto… 1650…  2019 Abdull…    9600 Lahore  Petrol  660 cc 
##  5 4168306 Toyota Coro… 1435…  2010 9th Av…  120000 Islama… Petrol  1300 cc
##  6 4168303 Honda Civic… 3850…  2017 Peshaw…   22000 Islama… Petrol  1500 cc
##  7 4168304 Suzuki Wago… 1440…  2017 Gulber…   31000 Lahore  Petrol  1000 cc
##  8 4168309 Mitsubishi … 1425…  2012 Askari…  101000 Lahore  Petrol  1000 cc
##  9 4168310 Toyota Prad… 2650…  1998 Sargod…  110000 Rawalp… Diesel  3000 cc
## 10 4168311 Honda Civic… 3350…  2017 Air Av…   60000 Lahore  Petrol  1800 cc
## # … with 44,907 more rows, 9 more variables: Transmission <chr>,
## #   Color <chr>, Assembly <chr>, `Body Type` <chr>, Features <chr>,
## #   `Last Updated` <chr>, price <dbl>, hp <dbl>, company <chr>, and
## #   abbreviated variable names ¹​Location, ²​`Registered City`,
## #   ³​`Engine Type`, ⁴​`Engine Capacity`
…
Compared to previous one, pkw_szk is showing data only for There are 14,199 cars. The tibble (name used for data in tidyverse form) pkw is being piped into the function filter(). The argument company == "Suzuki" tells filter() that it should find all the rows such that the logical condition year == "Suzuki is TRUE.

Have we accidently deleted all other rows? Answer is no.

Nope: we haven’t made any changes to gapminder at all. If you don’t believe me try entering pkw at the console. All that this command does is display a subset of gapminder. If we wanted to store the result of running this command, we’d need to assign it to a variable, for example if you are not sure, lets type

Code

pkw |> filter(company=="Suzuki")
## # A tibble: 14,199 × 19
##    `Ad No` Name         Price  year Locat…¹ Mileage Regis…² Engin…³ Engin…⁴
##      <dbl> <chr>        <chr> <dbl> <chr>     <dbl> <chr>   <chr>   <chr>  
##  1 4168298 Suzuki Alto… 1530…  2019 Akora …   17500 Un-Reg… Petrol  660 cc 
##  2 4168307 Suzuki Alto… 1650…  2019 Abdull…    9600 Lahore  Petrol  660 cc 
##  3 4168304 Suzuki Wago… 1440…  2017 Gulber…   31000 Lahore  Petrol  1000 cc
##  4 4168320 Suzuki Cult… 9199…  2012 Bismil…   83000 Lahore  Petrol  1000 cc
##  5 4168327 Suzuki Wago… 1625…  2016 Sui No…   45000 Un-Reg… Petrol  660 cc 
##  6 4168332 Suzuki Mehr… 8400…  2018 Sargod…   55000 Islama… Petrol  800 cc 
##  7 4168333 Suzuki Khyb… 4000…  2000 MDA Ch…   90000 Multan  Petrol  1000 cc
##  8 4134011 Suzuki Alto… 1445…  2016 Johar …   65000 Lahore  Petrol  660 cc 
##  9 4168228 Suzuki Wago… 1495…  2013 Hospit…   85000 Islama… Petrol  660 cc 
## 10 4168257 Suzuki Alto… 1495…  2016 Karach…   63000 Karachi Petrol  660 cc 
## # … with 14,189 more rows, 10 more variables: Transmission <chr>,
## #   Color <chr>, Assembly <chr>, `Body Type` <chr>, Features <chr>,
## #   `Last Updated` <chr>, URL <chr>, price <dbl>, hp <dbl>, company <chr>,
## #   and abbreviated variable names ¹​Location, ²​`Registered City`,
## #   ³​`Engine Type`, ⁴​`Engine Capacity`
…
Filtering data for Honda

Code

pkw_hnd<-pkw |> filter(company=="Honda")

Sort data with arrange

Sort data with arrange Suppose we wanted to sort pkw data for Honda by Color. To do this we can use the arrange command along with the pipe |> as follows:

Code

pkw |>filter(company=="Honda") |> count(Color)|>arrange(n)## This sorts in asceding order
## # A tibble: 23 × 2
##    Color         n
##    <chr>     <int>
##  1 Magenta       1
##  2 Orange        3
##  3 Yellow       10
##  4 Navy         17
##  5 Turquoise    17
##  6 Pink         20
##  7 Purple       24
##  8 Indigo       25
##  9 Unlisted     29
## 10 Beige        42
## # … with 13 more rows

Descending order requires arrange(desc()) comand

Code

pkw |>filter(company=="Honda") |> count(Color)|>arrange(desc(n))## This sorts in asceding order
## # A tibble: 23 × 2
##    Color        n
##    <chr>    <int>
##  1 White     3425
##  2 Black     1848
##  3 Silver    1603
##  4 Grey       992
##  5 Blue       315
##  6 Assembly   271
##  7 Maroon     162
##  8 Red        150
##  9 Gold       140
## 10 Green      128
## # … with 13 more rows
…
It’s a little hard to read the column peice in pkw data since there are so many digits. Suppose that, instead of price in Rs., we wanted to display price in millions of rupees. This requires us to divide price by 1000000, which we can do using the function mutate() from dplyr as follows:

Code

pkw<- pkw %>% mutate(price_m=price/1000000)

Top bottom prices by companies for pkw data

What are the five lowest and highest car prices for 1300 cc for model year 2017?

Code

pkw |> filter(year=="2017",hp==1300) ## year 2017 and engine capacity 1300
## # A tibble: 758 × 20
##    `Ad No` Name         Price  year Locat…¹ Mileage Regis…² Engin…³ Engin…⁴
##      <dbl> <chr>        <chr> <dbl> <chr>     <dbl> <chr>   <chr>   <chr>  
##  1 4168312 Honda City … 1989…  2017 Lahore…   75000 Lahore  Petrol  1300 cc
##  2 4168141 Toyota Coro… 2595…  2017 Islama…   41000 Islama… Petrol  1300 cc
##  3 4168148 Toyota Coro… 2480…  2017 North …   38000 Karachi Petrol  1300 cc
##  4 4168061 Honda City … 2145…  2017 Bahria…   70000 Islama… Petrol  1300 cc
##  5 4145330 Toyota Coro… 2540…  2017 Karach…   36000 Karachi Petrol  1300 cc
##  6 4145974 Suzuki Swif… 1570…  2017 Garden…   56000 Islama… Petrol  1300 cc
##  7 4167831 Toyota Coro… 2400…  2017 Bahria…   50000 Islama… Petrol  1300 cc
##  8 3911337 Suzuki Swif… 1575…  2017 A.F.O.…   34000 Karachi Petrol  1300 cc
##  9 4167800 Honda City … 2050…  2017 Taj Pu…   85000 Lahore  Petrol  1300 cc
## 10 4167728 Honda City … 2025…  2017 Rawalp…   80000 Islama… Petrol  1300 cc
## # … with 748 more rows, 11 more variables: Transmission <chr>,
## #   Color <chr>, Assembly <chr>, `Body Type` <chr>, Features <chr>,
## #   `Last Updated` <chr>, URL <chr>, price <dbl>, hp <dbl>, company <chr>,
## #   price_m <dbl>, and abbreviated variable names ¹​Location,
## #   ²​`Registered City`, ³​`Engine Type`, ⁴​`Engine Capacity`
…
Code

pkw |>
  filter(year == 2017) |>
  group_by(company) |>
  mutate(under_25 = if_else(Mileage<25000, "Y", "N"))|>
  summarize(avg_price = mean(price)) 

Total number of cars for sale year-wise

Code

pkw
## # A tibble: 44,917 × 20
##    `Ad No` Name         Price  year Locat…¹ Mileage Regis…² Engin…³ Engin…⁴
##      <dbl> <chr>        <chr> <dbl> <chr>     <dbl> <chr>   <chr>   <chr>  
##  1 4096758 Toyota Vitz… 2385…  2017 G- 8, …    9869 Un-Reg… Petrol  1000 cc
##  2 4168305 Toyota Coro… 1110…  2019 Peshaw…   11111 Islama… Petrol  1300 cc
##  3 4168298 Suzuki Alto… 1530…  2019 Akora …   17500 Un-Reg… Petrol  660 cc 
##  4 4168307 Suzuki Alto… 1650…  2019 Abdull…    9600 Lahore  Petrol  660 cc 
##  5 4168306 Toyota Coro… 1435…  2010 9th Av…  120000 Islama… Petrol  1300 cc
##  6 4168303 Honda Civic… 3850…  2017 Peshaw…   22000 Islama… Petrol  1500 cc
##  7 4168304 Suzuki Wago… 1440…  2017 Gulber…   31000 Lahore  Petrol  1000 cc
##  8 4168309 Mitsubishi … 1425…  2012 Askari…  101000 Lahore  Petrol  1000 cc
##  9 4168310 Toyota Prad… 2650…  1998 Sargod…  110000 Rawalp… Diesel  3000 cc
## 10 4168311 Honda Civic… 3350…  2017 Air Av…   60000 Lahore  Petrol  1800 cc
## # … with 44,907 more rows, 11 more variables: Transmission <chr>,
## #   Color <chr>, Assembly <chr>, `Body Type` <chr>, Features <chr>,
## #   `Last Updated` <chr>, URL <chr>, price <dbl>, hp <dbl>, company <chr>,
## #   price_m <dbl>, and abbreviated variable names ¹​Location,
## #   ²​`Registered City`, ³​`Engine Type`, ⁴​`Engine Capacity`
pkw|>filter(hp==1300)|>group_by(year,company)|>
  count(Color)|>summarise(total=sum(n))|>arrange(desc(year))
## # A tibble: 135 × 3
## # Groups:   year [30]
##     year company total
##    <dbl> <chr>   <int>
##  1  2019 FAW         5
##  2  2019 Honda     228
##  3  2019 Suzuki     84
##  4  2019 Toyota    345
##  5  2018 FAW        22
##  6  2018 Honda     334
##  7  2018 Suzuki    100
##  8  2018 Toyota    418
##  9  2017 FAW        19
## 10  2017 Honda     237
## # … with 125 more rows

Percentiles

In general, higher the Mileage (more the age of a car) , lower the price. To test this assumption, lets calculate percentiles of price. This will indicate how many have ranking lower than the current country.

Code

pkw %>% select(price,year, Mileage) %>% 
  filter(year == 2017) %>%
  mutate(percentile = ntile(Mileage, 100)) %>%
  arrange(desc(price))
## # A tibble: 4,038 × 4
##       price  year Mileage percentile
##       <dbl> <dbl>   <dbl>      <int>
##  1 47000000  2017   18000         11
##  2 45000000  2017   20000         12
##  3 44000000  2017     700          1
##  4 43500000  2017   13000          6
##  5 42500000  2017      50          1
##  6 42500000  2017   25000         17
##  7 42500000  2017   60000         75
##  8 42500000  2017   18000         10
##  9 42000000  2017   16000          9
## 10 41500000  2017   14000          7
## # … with 4,028 more rows
…
Data visualization

Filtering data as done in introductory analysis seems quite difficult if you are not familiar with these simple things. But if you are working with dplyr for quite sometime, there is not anything very advanced or difficult.

For example, let’s say you have to find out the top 10 countries in the 90th percentile regarding life expectancy in 2007. You can reuse some of the logic from the previous sections, but answering this question alone requires multiple filtering and subsetting:

Code

pkw %>% filter(year==2017) %>% 
  mutate(percentile=ntile(price,100)) %>% 
  filter(percentile>90) %>% 
  arrange(desc(percentile)) %>% 
  top_n(10,wt=percentile) %>% 
  select(company,Mileage,price,hp)
## # A tibble: 40 × 4
##    company  Mileage    price    hp
##    <chr>      <dbl>    <dbl> <dbl>
##  1 Mercedes   11000 15500000  2000
##  2 Toyota        50 42500000  4608
##  3 Toyota      4000 26500000  2700
##  4 Toyota     25000 42500000  4608
##  5 Audi       21000 13500000  1800
##  6 Toyota       700 44000000  4600
##  7 Mercedes   12900 17500000  2000
##  8 Toyota     60000 38000000  4608
##  9 Toyota     16500 25500000  2700
## 10 Toyota     20000 45000000  4600
## # … with 30 more rows

In case you are interested in bottom 10 (lowest price cars), use top_n with -10.

Code

pkw %>% filter(year==2017) %>% 
  mutate(percentile=ntile(price,100)) %>% 
  filter(percentile<10) %>% 
  arrange(desc(percentile)) %>% 
  top_n(-10,wt=percentile) %>% 
  select(company,Mileage,price,hp)
## # A tibble: 41 × 4
##    company Mileage  price    hp
##    <chr>     <dbl>  <dbl> <dbl>
##  1 Toyota    97000 123000  2700
##  2 Suzuki    77928 725000   800
##  3 Suzuki    40000 700000   800
##  4 Suzuki    49000 760000   800
##  5 Suzuki    57000 750000   800
##  6 Suzuki    74000 740000   800
##  7 Suzuki    60000 640000   800
##  8 Suzuki    95000 700000  1000
##  9 Suzuki    39000 730000   800
## 10 Suzuki    68000 730000   800
## # … with 31 more rows
…
