House rental and sales market: Case study of Pakistan
…
    Rawalpindi
10178

    Faisalabad
3888

This is an exploratory analysis and one must not draw strong conclusions from these tabular results. As Islamabad has maximum properties listed for rental purposes. It may be really the case but it may also be the case that listing of properties for rental on zameen.com is more common practice than other cities or we have a data which is not truly reflecting the real picture. So one should observe care while drawing conclusions on exploratory data analysis as its main objective is to get insight of data for oneself.

So far I have provided overview of data and using select to drop or keep variables. Now I am using mutate another important verb for data wrangling. It is used to calculate a new variable. I am calculating price in million of Rs.

zam_sel |> mutate(price_mill = price / 1000000) -> zam_sel
zam_sel 
## # A tibble: 191,393 × 19
##    property_type   price price_bin location city  province_name baths area 
##    <chr>           <dbl> <chr>     <chr>    <chr> <chr>         <dbl> <chr>
##  1 House          2.20e8 Very High Model T… Laho… Punjab            0 6 Ka…
##  2 House          4   e7 Very High Multan … Laho… Punjab            5 1 Ka…
##  3 House          9.5 e6 Low       Eden     Laho… Punjab            0 9 Ma…
##  4 House          1.25e8 Very High Gulberg  Laho… Punjab            7 1 Ka…
##  5 House          2.10e7 High      Allama … Laho… Punjab            5 11 M…
##  6 House          5.20e7 Very High Gulberg  Laho… Punjab            6 1 Ka…
##  7 House          1.65e7 High      Militar… Laho… Punjab            7 8 Ma…
##  8 House          3.25e7 High      EME Soc… Laho… Punjab            0 1 Ka…
##  9 House          3.15e7 High      EME Soc… Laho… Punjab            0 1 Ka…
## 10 House          4   e7 Very High Izmir T… Laho… Punjab            0 1.6 …
## # ℹ 191,383 more rows
## # ℹ 11 more variables: area_marla <dbl>, area_sqft <dbl>, purpose <chr>,
## #   bedrooms <dbl>, date_added <chr>, year <dbl>, month <chr>, day <chr>,
## #   agency <chr>, agent <chr>, price_mill <dbl>
…
sale |>mutate(area=as_factor(area)) |>  filter(city %in% c("Islamabad", "Rawalpindi")) |> group_by(area) |> 
  summarise(frequency=n()) 
## # A tibble: 207 × 2
##    area      frequency
##    <fct>         <int>
##  1 6 Kanal           1
##  2 9 Marla         151
##  3 1 Kanal        2396
##  4 11 Marla        267
##  5 8 Marla        1539
##  6 1.6 Kanal        61
##  7 7.5 Marla        36
##  8 1.2 Kanal       244
##  9 5 Marla        4285
## 10 10 Marla       3146
## # ℹ 197 more rows
